<?xml version="1.0" encoding="UTF-8"?>
<glyph name="T" format="2">
	<advance width="516"/>
	<unicode hex="0054"/>
	<outline>
		<contour>
			<point x="506" y="670" type="line"/>
			<point x="241" y="670" type="line"/>
			<point x="241" y="575" type="line"/>
			<point x="506" y="575" type="line"/>
		</contour>
		<contour>
			<point x="196" y="0" type="line"/>
			<point x="318" y="0" type="line"/>
			<point x="318" y="670" type="line"/>
			<point x="196" y="670" type="line"/>
		</contour>
		<contour>
			<point x="274" y="670" type="line"/>
			<point x="9" y="670" type="line"/>
			<point x="9" y="575" type="line"/>
			<point x="274" y="575" type="line"/>
		</contour>
	</outline>
	<lib>
		<dict>
			<key>public.markColor</key>
			<string>0.99,0.62,0.11,1</string>
		</dict>
	</lib>
</glyph>
